…
#### 発生・集中量: `person_trip_occurred_concentrated`

``` r
library(sf)
targets::tar_read(person_trip_occurred_concentrated)
```

    Simple feature collection with 104892 features and 7 fields
    Geometry type: MULTIPOLYGON
    Dimension:     XY
    Bounding box:  xmin: 134.2527 ymin: 33.43311 xmax: 140.873 ymax: 36.46507
    Geodetic CRS:  JGD2000
    # A tibble: 104,892 × 8
       urban_area_name data_creation_year zone_code transportation purpose
       <fct>                        <int> <chr>     <fct>          <fct>  
     1 syuto                         2010 0010      鉄道           出勤   
     2 syuto                         2010 0010      鉄道           登校   
     3 syuto                         2010 0010      鉄道           自由   
     4 syuto                         2010 0010      鉄道           業務   
     5 syuto                         2010 0010      鉄道           帰宅   
     6 syuto                         2010 0010      鉄道           合計   
     7 syuto                         2010 0010      バス           出勤   
     8 syuto                         2010 0010      バス           登校   
     9 syuto                         2010 0010      バス           自由   
    10 syuto                         2010 0010      バス           業務   
    # ℹ 104,882 more rows
    # ℹ 3 more variables: traffic_volume_occurred <int>,
    #   traffic_volume_concentrated <int>, geometry <MULTIPOLYGON [°]>
…
- 出典: 国土数値情報 交通流動量 パーソントリップＯＤ量データ
  (<https://nlftp.mlit.go.jp/ksj/gml/datalist/KsjTmplt-S05-b-2013.html>)
- OD量のうち**目的別の合計値**，および**代表地点間距離**については，国土数値情報
  交通流動量 パーソントリップＯＤ量データ
  (<https://nlftp.mlit.go.jp/ksj/gml/datalist/KsjTmplt-S05-b-2013.html>)
  を加工して作成

#### OD量: `person_trip_od_amount`

``` r
targets::tar_read(person_trip_od_amount)
```

    # A tibble: 212 × 5
       urban_area_name data_creation_year transportation purpose od_amount          
       <fct>                        <int> <fct>          <fct>   <list>             
     1 syuto                         2010 鉄道           出勤    <table [600 × 600]>
     2 syuto                         2010 鉄道           登校    <table [600 × 600]>
     3 syuto                         2010 鉄道           自由    <table [600 × 600]>
     4 syuto                         2010 鉄道           業務    <table [600 × 600]>
     5 syuto                         2010 鉄道           帰宅    <table [600 × 600]>
     6 syuto                         2010 鉄道           合計    <table [600 × 600]>
     7 syuto                         2010 バス           出勤    <table [600 × 600]>
     8 syuto                         2010 バス           登校    <table [600 × 600]>
     9 syuto                         2010 バス           自由    <table [600 × 600]>
    10 syuto                         2010 バス           業務    <table [600 × 600]>
    # ℹ 202 more rows
…
